  0
SECTION
  2
BLOCKS
  0
ENDSEC
  0
SECTION
  2
ENTITIES
  0
LINE
  8
0
 10
19
 20
0
 11
0
 21
0
  0
LINE
  8
0
 10
0
 20
0
 11
0
 21
-10.6
  0
LINE
  8
0
 10
0
 20
-10.6
 11
16
 21
-10.6
  0
LINE
  8
0
 10
16
 20
-10.6
 11
19
 21
0
  0
LINE
  8
0
 10
4.39325
 20
-8.04663
 11
4.28693
 21
-8.03659
  0
LINE
  8
0
 10
4.28693
 20
-8.03659
 11
4.18144
 21
-8.01988
  0
LINE
  8
0
 10
4.18144
 20
-8.01988
 11
4.07722
 21
-7.99658
  0
LINE
  8
0
 10
4.07722
 20
-7.99658
 11
3.97467
 21
-7.96678
  0
LINE
  8
0
 10
3.97467
 20
-7.96678
 11
3.87418
 21
-7.93062
  0
LINE
  8
0
 10
3.87418
 20
-7.93062
 11
3.77617
 21
-7.8882
  0
LINE
  8
0
 10
3.77617
 20
-7.8882
 11
3.68102
 21
-7.83971
  0
LINE
  8
0
 10
3.68102
 20
-7.83971
 11
3.58908
 21
-7.78535
  0
LINE
  8
0
 10
3.58908
 20
-7.78535
 11
3.50076
 21
-7.72533
  0
LINE
  8
0
 10
3.50076
 20
-7.72533
 11
3.41637
 21
-7.65987
  0
LINE
  8
0
 10
3.41637
 20
-7.65987
 11
3.33626
 21
-7.58923
  0
LINE
  8
0
 10
3.33626
 20
-7.58923
 11
3.26074
 21
-7.51372
  0
LINE
  8
0
 10
3.26074
 20
-7.51372
 11
3.19012
 21
-7.43361
  0
LINE
  8
0
 10
3.19012
 20
-7.43361
 11
3.12466
 21
-7.34923
  0
LINE
  8
0
 10
3.12466
 20
-7.34923
 11
3.06464
 21
-7.26089
  0
LINE
  8
0
 10
3.06464
 20
-7.26089
 11
3.01027
 21
-7.16898
  0
LINE
  8
0
 10
3.01027
 20
-7.16898
 11
2.96179
 21
-7.07382
  0
LINE
  8
0
 10
2.96179
 20
-7.07382
 11
2.91937
 21
-6.9758
  0
LINE
  8
0
 10
2.91937
 20
-6.9758
 11
2.88319
 21
-6.87532
  0
LINE
  8
0
 10
2.88319
 20
-6.87532
 11
2.85339
 21
-6.77277
  0
LINE
  8
0
 10
2.85339
 20
-6.77277
 11
2.83011
 21
-6.66853
  0
LINE
  8
0
 10
2.83011
 20
-6.66853
 11
2.8134
 21
-6.56306
  0
LINE
  8
0
 10
2.8134
 20
-6.56306
 11
2.80334
 21
-6.45674
  0
LINE
  8
0
 10
2.80334
 20
-6.45674
 11
2.79999
 21
-6.34999
  0
LINE
  8
0
 10
2.79999
 20
-6.34999
 11
2.80334
 21
-6.24326
  0
LINE
  8
0
 10
2.80334
 20
-6.24326
 11
2.8134
 21
-6.13693
  0
LINE
  8
0
 10
2.8134
 20
-6.13693
 11
2.83011
 21
-6.03145
  0
LINE
  8
0
 10
2.83011
 20
-6.03145
 11
2.85339
 21
-5.92722
  0
LINE
  8
0
 10
2.85339
 20
-5.92722
 11
2.88319
 21
-5.82466
  0
LINE
  8
0
 10
2.88319
 20
-5.82466
 11
2.91937
 21
-5.72418
  0
LINE
  8
0
 10
2.91937
 20
-5.72418
 11
2.96179
 21
-5.62617
  0
LINE
  8
0
 10
2.96179
 20
-5.62617
 11
3.01027
 21
-5.53101
  0
LINE
  8
0
 10
3.01027
 20
-5.53101
 11
3.06464
 21
-5.43909
  0
LINE
  8
0
 10
3.06464
 20
-5.43909
 11
3.12466
 21
-5.35075
  0
LINE
  8
0
 10
3.12466
 20
-5.35075
 11
3.19012
 21
-5.26637
  0
LINE
  8
0
 10
3.19012
 20
-5.26637
 11
3.26074
 21
-5.18626
  0
LINE
  8
0
 10
3.26074
 20
-5.18626
 11
3.33626
 21
-5.11075
  0
LINE
  8
0
 10
3.33626
 20
-5.11075
 11
3.41637
 21
-5.04012
  0
LINE
  8
0
 10
3.41637
 20
-5.04012
 11
3.50076
 21
-4.97467
  0
LINE
  8
0
 10
3.50076
 20
-4.97467
 11
3.58908
 21
-4.91464
  0
LINE
  8
0
 10
3.58908
 20
-4.91464
 11
3.68102
 21
-4.86028
  0
LINE
  8
0
 10
3.68102
 20
-4.86028
 11
3.77617
 21
-4.81178
  0
LINE
  8
0
 10
3.77617
 20
-4.81178
 11
3.87418
 21
-4.76938
  0
LINE
  8
0
 10
3.87418
 20
-4.76938
 11
3.97467
 21
-4.7332
  0
LINE
  8
0
 10
3.97467
 20
-4.7332
 11
4.07722
 21
-4.7034
  0
LINE
  8
0
 10
4.07722
 20
-4.7034
 11
4.18144
 21
-4.6801
  0
LINE
  8
0
 10
4.18144
 20
-4.6801
 11
4.28693
 21
-4.66339
  0
LINE
  8
0
 10
4.28693
 20
-4.66339
 11
4.39325
 21
-4.65335
  0
LINE
  8
0
 10
4.39325
 20
-4.65335
 11
4.5
 21
-4.64999
  0
LINE
  8
0
 10
4.5
 20
-4.64999
 11
4.60674
 21
-4.65335
  0
LINE
  8
0
 10
4.60674
 20
-4.65335
 11
4.71306
 21
-4.66339
  0
LINE
  8
0
 10
4.71306
 20
-4.66339
 11
4.81854
 21
-4.6801
  0
LINE
  8
0
 10
4.81854
 20
-4.6801
 11
4.92276
 21
-4.7034
  0
LINE
  8
0
 10
4.92276
 20
-4.7034
 11
5.02531
 21
-4.7332
  0
LINE
  8
0
 10
5.02531
 20
-4.7332
 11
5.12581
 21
-4.76938
  0
LINE
  8
0
 10
5.12581
 20
-4.76938
 11
5.22382
 21
-4.81178
  0
LINE
  8
0
 10
5.22382
 20
-4.81178
 11
5.31897
 21
-4.86028
  0
LINE
  8
0
 10
5.31897
 20
-4.86028
 11
5.4109
 21
-4.91464
  0
LINE
  8
0
 10
5.4109
 20
-4.91464
 11
5.49922
 21
-4.97467
  0
LINE
  8
0
 10
5.49922
 20
-4.97467
 11
5.58362
 21
-5.04012
  0
LINE
  8
0
 10
5.58362
 20
-5.04012
 11
5.66373
 21
-5.11075
  0
LINE
  8
0
 10
5.66373
 20
-5.11075
 11
5.73924
 21
-5.18626
  0
LINE
  8
0
 10
5.73924
 20
-5.18626
 11
5.80986
 21
-5.26637
  0
LINE
  8
0
 10
5.80986
 20
-5.26637
 11
5.87532
 21
-5.35075
  0
LINE
  8
0
 10
5.87532
 20
-5.35075
 11
5.93535
 21
-5.43909
  0
LINE
  8
0
 10
5.93535
 20
-5.43909
 11
5.98972
 21
-5.53101
  0
LINE
  8
0
 10
5.98972
 20
-5.53101
 11
6.03819
 21
-5.62617
  0
LINE
  8
0
 10
6.03819
 20
-5.62617
 11
6.08061
 21
-5.72418
  0
LINE
  8
0
 10
6.08061
 20
-5.72418
 11
6.11679
 21
-5.82466
  0
LINE
  8
0
 10
6.11679
 20
-5.82466
 11
6.14659
 21
-5.92722
  0
LINE
  8
0
 10
6.14659
 20
-5.92722
 11
6.16988
 21
-6.03145
  0
LINE
  8
0
 10
6.16988
 20
-6.03145
 11
6.18658
 21
-6.13693
  0
LINE
  8
0
 10
6.18658
 20
-6.13693
 11
6.19664
 21
-6.24326
  0
LINE
  8
0
 10
6.19664
 20
-6.24326
 11
6.2
 21
-6.34999
  0
LINE
  8
0
 10
6.2
 20
-6.34999
 11
6.19664
 21
-6.45674
  0
LINE
  8
0
 10
6.19664
 20
-6.45674
 11
6.18658
 21
-6.56306
  0
LINE
  8
0
 10
6.18658
 20
-6.56306
 11
6.16988
 21
-6.66853
  0
LINE
  8
0
 10
6.16988
 20
-6.66853
 11
6.14659
 21
-6.77277
  0
LINE
  8
0
 10
6.14659
 20
-6.77277
 11
6.11679
 21
-6.87532
  0
LINE
  8
0
 10
6.11679
 20
-6.87532
 11
6.08061
 21
-6.9758
  0
LINE
  8
0
 10
6.08061
 20
-6.9758
 11
6.03819
 21
-7.07382
  0
LINE
  8
0
 10
6.03819
 20
-7.07382
 11
5.98972
 21
-7.16898
  0
LINE
  8
0
 10
5.98972
 20
-7.16898
 11
5.93535
 21
-7.26089
  0
LINE
  8
0
 10
5.93535
 20
-7.26089
 11
5.87532
 21
-7.34923
  0
LINE
  8
0
 10
5.87532
 20
-7.34923
 11
5.80986
 21
-7.43361
  0
LINE
  8
0
 10
5.80986
 20
-7.43361
 11
5.73924
 21
-7.51372
  0
LINE
  8
0
 10
5.73924
 20
-7.51372
 11
5.66373
 21
-7.58923
  0
LINE
  8
0
 10
5.66373
 20
-7.58923
 11
5.58362
 21
-7.65987
  0
LINE
  8
0
 10
5.58362
 20
-7.65987
 11
5.49922
 21
-7.72533
  0
LINE
  8
0
 10
5.49922
 20
-7.72533
 11
5.4109
 21
-7.78535
  0
LINE
  8
0
 10
5.4109
 20
-7.78535
 11
5.31897
 21
-7.83971
  0
LINE
  8
0
 10
5.31897
 20
-7.83971
 11
5.22382
 21
-7.8882
  0
LINE
  8
0
 10
5.22382
 20
-7.8882
 11
5.12581
 21
-7.93062
  0
LINE
  8
0
 10
5.12581
 20
-7.93062
 11
5.02531
 21
-7.96678
  0
LINE
  8
0
 10
5.02531
 20
-7.96678
 11
4.92276
 21
-7.99658
  0
LINE
  8
0
 10
4.92276
 20
-7.99658
 11
4.81854
 21
-8.01988
  0
LINE
  8
0
 10
4.81854
 20
-8.01988
 11
4.71306
 21
-8.03659
  0
LINE
  8
0
 10
4.71306
 20
-8.03659
 11
4.60674
 21
-8.04663
  0
LINE
  8
0
 10
4.60674
 20
-8.04663
 11
4.5
 21
-8.04999
  0
LINE
  8
0
 10
4.5
 20
-8.04999
 11
4.39325
 21
-8.04663
  0
ENDSEC
  0
SECTION
  2
OBJECTS
  0
DICTIONARY
  0
ENDSEC
  0
EOF
