  0
SECTION
  2
BLOCKS
  0
ENDSEC
  0
SECTION
  2
ENTITIES
  0
LINE
  8
0
 10
19
 20
0
 11
0
 21
0
  0
LINE
  8
0
 10
0
 20
0
 11
0
 21
-9
  0
LINE
  8
0
 10
0
 20
-9
 11
16
 21
-9
  0
LINE
  8
0
 10
16
 20
-9
 11
19
 21
0
  0
LINE
  8
0
 10
4.39952
 20
-6.34683
 11
4.29945
 21
-6.33737
  0
LINE
  8
0
 10
4.29945
 20
-6.33737
 11
4.20018
 21
-6.32166
  0
LINE
  8
0
 10
4.20018
 20
-6.32166
 11
4.10208
 21
-6.29973
  0
LINE
  8
0
 10
4.10208
 20
-6.29973
 11
4.00557
 21
-6.27168
  0
LINE
  8
0
 10
4.00557
 20
-6.27168
 11
3.911
 21
-6.23764
  0
LINE
  8
0
 10
3.911
 20
-6.23764
 11
3.81874
 21
-6.19771
  0
LINE
  8
0
 10
3.81874
 20
-6.19771
 11
3.72919
 21
-6.15208
  0
LINE
  8
0
 10
3.72919
 20
-6.15208
 11
3.64267
 21
-6.10092
  0
LINE
  8
0
 10
3.64267
 20
-6.10092
 11
3.55954
 21
-6.04442
  0
LINE
  8
0
 10
3.55954
 20
-6.04442
 11
3.48012
 21
-5.98282
  0
LINE
  8
0
 10
3.48012
 20
-5.98282
 11
3.40472
 21
-5.91634
  0
LINE
  8
0
 10
3.40472
 20
-5.91634
 11
3.33365
 21
-5.84526
  0
LINE
  8
0
 10
3.33365
 20
-5.84526
 11
3.26717
 21
-5.76987
  0
LINE
  8
0
 10
3.26717
 20
-5.76987
 11
3.20557
 21
-5.69044
  0
LINE
  8
0
 10
3.20557
 20
-5.69044
 11
3.14906
 21
-5.60732
  0
LINE
  8
0
 10
3.14906
 20
-5.60732
 11
3.0979
 21
-5.5208
  0
LINE
  8
0
 10
3.0979
 20
-5.5208
 11
3.05228
 21
-5.43124
  0
LINE
  8
0
 10
3.05228
 20
-5.43124
 11
3.01234
 21
-5.33899
  0
LINE
  8
0
 10
3.01234
 20
-5.33899
 11
2.9783
 21
-5.24442
  0
LINE
  8
0
 10
2.9783
 20
-5.24442
 11
2.95026
 21
-5.1479
  0
LINE
  8
0
 10
2.95026
 20
-5.1479
 11
2.92833
 21
-5.0498
  0
LINE
  8
0
 10
2.92833
 20
-5.0498
 11
2.91261
 21
-4.95053
  0
LINE
  8
0
 10
2.91261
 20
-4.95053
 11
2.90315
 21
-4.85046
  0
LINE
  8
0
 10
2.90315
 20
-4.85046
 11
2.89999
 21
-4.75
  0
LINE
  8
0
 10
2.89999
 20
-4.75
 11
2.90315
 21
-4.64952
  0
LINE
  8
0
 10
2.90315
 20
-4.64952
 11
2.91261
 21
-4.54945
  0
LINE
  8
0
 10
2.91261
 20
-4.54945
 11
2.92833
 21
-4.45018
  0
LINE
  8
0
 10
2.92833
 20
-4.45018
 11
2.95026
 21
-4.35208
  0
LINE
  8
0
 10
2.95026
 20
-4.35208
 11
2.9783
 21
-4.25557
  0
LINE
  8
0
 10
2.9783
 20
-4.25557
 11
3.01234
 21
-4.161
  0
LINE
  8
0
 10
3.01234
 20
-4.161
 11
3.05228
 21
-4.06874
  0
LINE
  8
0
 10
3.05228
 20
-4.06874
 11
3.0979
 21
-3.97919
  0
LINE
  8
0
 10
3.0979
 20
-3.97919
 11
3.14906
 21
-3.89267
  0
LINE
  8
0
 10
3.14906
 20
-3.89267
 11
3.20557
 21
-3.80954
  0
LINE
  8
0
 10
3.20557
 20
-3.80954
 11
3.26717
 21
-3.73012
  0
LINE
  8
0
 10
3.26717
 20
-3.73012
 11
3.33365
 21
-3.65472
  0
LINE
  8
0
 10
3.33365
 20
-3.65472
 11
3.40472
 21
-3.58365
  0
LINE
  8
0
 10
3.40472
 20
-3.58365
 11
3.48012
 21
-3.51717
  0
LINE
  8
0
 10
3.48012
 20
-3.51717
 11
3.55954
 21
-3.45557
  0
LINE
  8
0
 10
3.55954
 20
-3.45557
 11
3.64267
 21
-3.39906
  0
LINE
  8
0
 10
3.64267
 20
-3.39906
 11
3.72919
 21
-3.3479
  0
LINE
  8
0
 10
3.72919
 20
-3.3479
 11
3.81874
 21
-3.30228
  0
LINE
  8
0
 10
3.81874
 20
-3.30228
 11
3.911
 21
-3.26234
  0
LINE
  8
0
 10
3.911
 20
-3.26234
 11
4.00557
 21
-3.2283
  0
LINE
  8
0
 10
4.00557
 20
-3.2283
 11
4.10208
 21
-3.20026
  0
LINE
  8
0
 10
4.10208
 20
-3.20026
 11
4.20018
 21
-3.17833
  0
LINE
  8
0
 10
4.20018
 20
-3.17833
 11
4.29945
 21
-3.16261
  0
LINE
  8
0
 10
4.29945
 20
-3.16261
 11
4.39952
 21
-3.15315
  0
LINE
  8
0
 10
4.39952
 20
-3.15315
 11
4.5
 21
-3.14999
  0
LINE
  8
0
 10
4.5
 20
-3.14999
 11
4.60046
 21
-3.15315
  0
LINE
  8
0
 10
4.60046
 20
-3.15315
 11
4.70053
 21
-3.16261
  0
LINE
  8
0
 10
4.70053
 20
-3.16261
 11
4.7998
 21
-3.17833
  0
LINE
  8
0
 10
4.7998
 20
-3.17833
 11
4.8979
 21
-3.20026
  0
LINE
  8
0
 10
4.8979
 20
-3.20026
 11
4.99442
 21
-3.2283
  0
LINE
  8
0
 10
4.99442
 20
-3.2283
 11
5.08899
 21
-3.26234
  0
LINE
  8
0
 10
5.08899
 20
-3.26234
 11
5.18124
 21
-3.30228
  0
LINE
  8
0
 10
5.18124
 20
-3.30228
 11
5.2708
 21
-3.3479
  0
LINE
  8
0
 10
5.2708
 20
-3.3479
 11
5.35732
 21
-3.39906
  0
LINE
  8
0
 10
5.35732
 20
-3.39906
 11
5.44044
 21
-3.45557
  0
LINE
  8
0
 10
5.44044
 20
-3.45557
 11
5.51987
 21
-3.51717
  0
LINE
  8
0
 10
5.51987
 20
-3.51717
 11
5.59526
 21
-3.58365
  0
LINE
  8
0
 10
5.59526
 20
-3.58365
 11
5.66634
 21
-3.65472
  0
LINE
  8
0
 10
5.66634
 20
-3.65472
 11
5.73282
 21
-3.73012
  0
LINE
  8
0
 10
5.73282
 20
-3.73012
 11
5.79442
 21
-3.80954
  0
LINE
  8
0
 10
5.79442
 20
-3.80954
 11
5.85092
 21
-3.89267
  0
LINE
  8
0
 10
5.85092
 20
-3.89267
 11
5.90208
 21
-3.97919
  0
LINE
  8
0
 10
5.90208
 20
-3.97919
 11
5.94771
 21
-4.06874
  0
LINE
  8
0
 10
5.94771
 20
-4.06874
 11
5.98764
 21
-4.161
  0
LINE
  8
0
 10
5.98764
 20
-4.161
 11
6.02168
 21
-4.25557
  0
LINE
  8
0
 10
6.02168
 20
-4.25557
 11
6.04973
 21
-4.35208
  0
LINE
  8
0
 10
6.04973
 20
-4.35208
 11
6.07166
 21
-4.45018
  0
LINE
  8
0
 10
6.07166
 20
-4.45018
 11
6.08737
 21
-4.54945
  0
LINE
  8
0
 10
6.08737
 20
-4.54945
 11
6.09683
 21
-4.64952
  0
LINE
  8
0
 10
6.09683
 20
-4.64952
 11
6.09999
 21
-4.75
  0
LINE
  8
0
 10
6.09999
 20
-4.75
 11
6.09683
 21
-4.85046
  0
LINE
  8
0
 10
6.09683
 20
-4.85046
 11
6.08737
 21
-4.95053
  0
LINE
  8
0
 10
6.08737
 20
-4.95053
 11
6.07166
 21
-5.0498
  0
LINE
  8
0
 10
6.07166
 20
-5.0498
 11
6.04973
 21
-5.1479
  0
LINE
  8
0
 10
6.04973
 20
-5.1479
 11
6.02168
 21
-5.24442
  0
LINE
  8
0
 10
6.02168
 20
-5.24442
 11
5.98764
 21
-5.33899
  0
LINE
  8
0
 10
5.98764
 20
-5.33899
 11
5.94771
 21
-5.43124
  0
LINE
  8
0
 10
5.94771
 20
-5.43124
 11
5.90208
 21
-5.5208
  0
LINE
  8
0
 10
5.90208
 20
-5.5208
 11
5.85092
 21
-5.60732
  0
LINE
  8
0
 10
5.85092
 20
-5.60732
 11
5.79442
 21
-5.69044
  0
LINE
  8
0
 10
5.79442
 20
-5.69044
 11
5.73282
 21
-5.76987
  0
LINE
  8
0
 10
5.73282
 20
-5.76987
 11
5.66634
 21
-5.84526
  0
LINE
  8
0
 10
5.66634
 20
-5.84526
 11
5.59526
 21
-5.91634
  0
LINE
  8
0
 10
5.59526
 20
-5.91634
 11
5.51987
 21
-5.98282
  0
LINE
  8
0
 10
5.51987
 20
-5.98282
 11
5.44044
 21
-6.04442
  0
LINE
  8
0
 10
5.44044
 20
-6.04442
 11
5.35732
 21
-6.10092
  0
LINE
  8
0
 10
5.35732
 20
-6.10092
 11
5.2708
 21
-6.15208
  0
LINE
  8
0
 10
5.2708
 20
-6.15208
 11
5.18124
 21
-6.19771
  0
LINE
  8
0
 10
5.18124
 20
-6.19771
 11
5.08899
 21
-6.23764
  0
LINE
  8
0
 10
5.08899
 20
-6.23764
 11
4.99442
 21
-6.27168
  0
LINE
  8
0
 10
4.99442
 20
-6.27168
 11
4.8979
 21
-6.29973
  0
LINE
  8
0
 10
4.8979
 20
-6.29973
 11
4.7998
 21
-6.32166
  0
LINE
  8
0
 10
4.7998
 20
-6.32166
 11
4.70053
 21
-6.33737
  0
LINE
  8
0
 10
4.70053
 20
-6.33737
 11
4.60046
 21
-6.34683
  0
LINE
  8
0
 10
4.60046
 20
-6.34683
 11
4.5
 21
-6.34999
  0
LINE
  8
0
 10
4.5
 20
-6.34999
 11
4.39952
 21
-6.34683
  0
ENDSEC
  0
SECTION
  2
OBJECTS
  0
DICTIONARY
  0
ENDSEC
  0
EOF
