  0
SECTION
  2
BLOCKS
  0
ENDSEC
  0
SECTION
  2
ENTITIES
  0
LINE
  8
0
 10
16.7002
 20
-1.2
 11
21.4189
 21
-1.2
  0
LINE
  8
0
 10
21.4189
 20
-1.2
 11
21.4189
 21
-4.6
  0
LINE
  8
0
 10
21.4189
 20
-4.6
 11
24.875
 21
-4.6
  0
LINE
  8
0
 10
24.875
 20
-4.6
 11
24.875
 21
-1.2
  0
LINE
  8
0
 10
24.875
 20
-1.2
 11
67.125
 21
-1.2
  0
LINE
  8
0
 10
67.125
 20
-1.2
 11
67.125
 21
-4.6
  0
LINE
  8
0
 10
67.125
 20
-4.6
 11
70.625
 21
-4.6
  0
LINE
  8
0
 10
70.625
 20
-4.6
 11
70.625
 21
-1.2
  0
LINE
  8
0
 10
70.625
 20
-1.2
 11
73.0498
 21
-1.2
  0
LINE
  8
0
 10
73.0498
 20
-1.2
 11
73.0498
 21
0
  0
LINE
  8
0
 10
73.0498
 20
0
 11
16.7002
 21
0
  0
LINE
  8
0
 10
16.7002
 20
0
 11
16.7002
 21
-1.2
  0
ENDSEC
  0
SECTION
  2
OBJECTS
  0
DICTIONARY
  0
ENDSEC
  0
EOF
